…
```r
# pull in CA counties data
caCounties <- map_data('county') %>%
  filter(region == 'california') %>%
  tbl_df()

# print
caCounties
```

```
## # A tibble: 2,977 × 6
##         long      lat group order     region subregion
##        <dbl>    <dbl> <dbl> <int>      <chr>     <chr>
## 1  -121.4785 37.48290   157  6965 california   alameda
## 2  -121.5129 37.48290   157  6966 california   alameda
## 3  -121.8853 37.48290   157  6967 california   alameda
## 4  -121.8968 37.46571   157  6968 california   alameda
## 5  -121.9254 37.45998   157  6969 california   alameda
## 6  -121.9483 37.47717   157  6970 california   alameda
## 7  -121.9541 37.47717   157  6971 california   alameda
## 8  -121.9541 37.49436   157  6972 california   alameda
## 9  -121.9999 37.50582   157  6973 california   alameda
## 10 -122.0457 37.52873   157  6974 california   alameda
## # ... with 2,967 more rows
```
…
